HCCLOCNTF  202009030
DCCLOC024312260050000541   082208227600   000000010359774.
DCCLOC024312260050000541   082208227600   000000010359774.
DCCLOC024312260050000541   082208227600   000000010359774.
DCCLOC024312260050000541   082208227600   000000010359774.
DCCLOC024312260050000541   082208227600   000000010359774.
DCCLOC024312260050000541   082208227600   000000010359774.
DCCLOC024201940065832061   082208227600   000000010359756.
DCCLOC024201940065832061   082208227600   000000010359756.
DCCLOC024201940065832061   082208227600   000000010359756.
DCCLOC024201940065832061   082208227600   000000010359756.
DCCLOC024201940065832061   082208227600   000000010359756.
DCCLOC024201940065832061   082208227600   000000010359756.
DCCLOC024312260050000558   082208227600   000000010359783.
DCCLOC034312260050000558   082208227600   000000010359783.
DCCLOC034312260050000558   082208227600   000000010359783.
DCCLOC024312260050000558   082208227600   000000010359783.
DCCLOC024312260050000558   082208227600   000000010359783.
DCCLOC024312260050000558   082208227600   000000010359783.
DCCLOC024201920050017134   082208227600   000000010359818.
DCCLOC024201920050017134   082208227600   000000010359818.
DCCLOC024201940065832061   082208227600   000000010359756.
DCCLOC034312260050000558   082208227600   000000010359783.
DCCLOC034312260050000558   082208227600   000000010359783.
T000000000023