id,amount,card_no,tenor,account_no,mobile_no,kode_bene,nama_bene,rek_bene,created_date,created_time,update_time,flag,status_bulk,channel
20200827165521292lPZLlTUt,1000000.00,4312260050000541,LO24,0000000000010359774,082208227600,MEGAIDJA,RANGGA SETIAWAN,010740020303148,2020-08-31,16:55:23,2020-09-15 00:00:00,J,A,Webinstallment
20200827165521292lPZLlpoi,1000000.00,4312260050000542,LO25,0000000000010359775,0822082276,MEGAIDJA,RANGGA SETIAWAN,010740020303148,2020-08-31,16:55:23,2020-09-15 00:00:00,J,A,Webinstallment
qwertyuiopasd123,1000000.00,43122600500005555,LO25,0000000000010359775,0987654321234,MEGAIDJA,RANGGA SETIAWAN,010740020303148,2020-08-31,16:55:23,2020-09-15 00:00:00,J,A,Webinstallment
20200827165521292lPZLalala,1000000.00,4312260050005678,LO25,0000000000010359775,08987654321,MEGAIDJA,RANGGA SETIAWAN,010740020303148,2020-08-31,16:55:23,2020-09-15 00:00:00,J,A,Webinstallment
